%YAML 1.1
%TAG !u! tag:unity3d.com,2011:
--- !u!74 &7400000
AnimationClip:
  m_ObjectHideFlags: 0
  m_PrefabParentObject: {fileID: 0}
  m_PrefabInternal: {fileID: 0}
  m_Name: ghostEffect
  serializedVersion: 6
  m_Legacy: 0
  m_Compressed: 0
  m_UseHighQualityCurve: 1
  m_RotationCurves: []
  m_CompressedRotationCurves: []
  m_EulerCurves: []
  m_PositionCurves:
  - curve:
      serializedVersion: 2
      m_Curve:
      - serializedVersion: 2
        time: 0
        value: {x: -0.416, y: -1.3375609, z: 0}
        inSlope: {x: -0.09121789, y: 0, z: 0}
        outSlope: {x: -0.09121789, y: 0, z: 0}
        tangentMode: 0
      - serializedVersion: 2
        time: 0.25
        value: {x: -0.41857225, y: -1.2752389, z: 0}
        inSlope: {x: 0.060558874, y: 0.22152251, z: 0}
        outSlope: {x: 0.060558874, y: 0.22152251, z: 0}
        tangentMode: 0
      - serializedVersion: 2
        time: 0.75
        value: {x: -0.34768835, y: -1.393, z: 0}
        inSlope: {x: 0.18265231, y: 0.10122143, z: 0}
        outSlope: {x: 0.18265231, y: 0.10122143, z: 0}
        tangentMode: 0
      - serializedVersion: 2
        time: 1.25
        value: {x: -0.18768463, y: -1.5320342, z: 0}
        inSlope: {x: 1.4998426, y: 0, z: 0}
        outSlope: {x: 1.4998426, y: 0, z: 0}
        tangentMode: 0
      - serializedVersion: 2
        time: 1.375
        value: {x: -0.039507378, y: -1.4967256, z: 0}
        inSlope: {x: 0.9048037, y: 0.48423228, z: 0}
        outSlope: {x: 0.9048037, y: 0.48423228, z: 0}
        tangentMode: 0
      - serializedVersion: 2
        time: 1.625
        value: {x: 0.097102106, y: -1.3958437, z: 0}
        inSlope: {x: 0.3233139, y: 0, z: 0}
        outSlope: {x: 0.3233139, y: 0, z: 0}
        tangentMode: 0
      - serializedVersion: 2
        time: 2.25
        value: {x: -0.2772079, y: -1.7987214, z: 0}
        inSlope: {x: -0.78227204, y: 0, z: 0}
        outSlope: {x: -0.78227204, y: 0, z: 0}
        tangentMode: 0
      - serializedVersion: 2
        time: 2.375
        value: {x: -0.35741127, y: -1.769224, z: 0}
        inSlope: {x: -0.47142854, y: 0.4355074, z: 0}
        outSlope: {x: -0.47142854, y: 0.4355074, z: 0}
        tangentMode: 0
      - serializedVersion: 2
        time: 2.75
        value: {x: -0.5756566, y: -1.5454696, z: 0}
        inSlope: {x: -0.13891888, y: 0.4297886, z: 0}
        outSlope: {x: -0.13891888, y: 0.4297886, z: 0}
        tangentMode: 0
      - serializedVersion: 2
        time: 2.875
        value: {x: -0.5893434, y: -1.5169255, z: 0}
        inSlope: {x: -0.083258346, y: -0.009531154, z: 0}
        outSlope: {x: -0.083258346, y: -0.009531154, z: 0}
        tangentMode: 0
      - serializedVersion: 2
        time: 3.375
        value: {x: -0.6103863, y: -1.4545878, z: 0}
        inSlope: {x: -0.05193016, y: 0.23678796, z: 0}
        outSlope: {x: -0.05193016, y: 0.23678796, z: 0}
        tangentMode: 0
      - serializedVersion: 2
        time: 3.5
        value: {x: -0.57576936, y: -1.3895615, z: 0}
        inSlope: {x: 0.5143125, y: 0.6323223, z: 0}
        outSlope: {x: 0.5143125, y: 0.6323223, z: 0}
        tangentMode: 0
      - serializedVersion: 2
        time: 3.625
        value: {x: -0.5046804, y: -1.3393345, z: 0}
        inSlope: {x: 0.5316221, y: 0, z: 0}
        outSlope: {x: 0.5316221, y: 0, z: 0}
        tangentMode: 0
      - serializedVersion: 2
        time: 3.75
        value: {x: -0.46573597, y: -1.3393345, z: 0}
        inSlope: {x: 0, y: 0, z: 0}
        outSlope: {x: 0, y: 0, z: 0}
        tangentMode: 0
      m_PreInfinity: 2
      m_PostInfinity: 2
      m_RotationOrder: 4
    path: 
  m_ScaleCurves: []
  m_FloatCurves:
  - curve:
      serializedVersion: 2
      m_Curve:
      - serializedVersion: 2
        time: 0
        value: 0.5882353
        inSlope: 0
        outSlope: 0
        tangentMode: 136
      - serializedVersion: 2
        time: 1.125
        value: 0.3612371
        inSlope: 0
        outSlope: 0
        tangentMode: 136
      - serializedVersion: 2
        time: 2.125
        value: 0.6711581
        inSlope: 0
        outSlope: 0
        tangentMode: 136
      - serializedVersion: 2
        time: 3.125
        value: 0.19463128
        inSlope: 0
        outSlope: 0
        tangentMode: 136
      - serializedVersion: 2
        time: 3.625
        value: 0.566
        inSlope: 0
        outSlope: 0
        tangentMode: 136
      m_PreInfinity: 2
      m_PostInfinity: 2
      m_RotationOrder: 4
    attribute: m_Color.a
    path: 
    classID: 212
    script: {fileID: 0}
  m_PPtrCurves:
  - curve:
    - time: 0
      value: {fileID: 21300002, guid: b15e622da7a1a214398ab63bb2091374, type: 3}
    - time: 0.375
      value: {fileID: 21300004, guid: b15e622da7a1a214398ab63bb2091374, type: 3}
    - time: 0.75
      value: {fileID: 21300006, guid: b15e622da7a1a214398ab63bb2091374, type: 3}
    - time: 1.25
      value: {fileID: 21300008, guid: b15e622da7a1a214398ab63bb2091374, type: 3}
    - time: 1.375
      value: {fileID: 21300018, guid: b15e622da7a1a214398ab63bb2091374, type: 3}
    - time: 1.625
      value: {fileID: 21300010, guid: b15e622da7a1a214398ab63bb2091374, type: 3}
    - time: 2
      value: {fileID: 21300012, guid: b15e622da7a1a214398ab63bb2091374, type: 3}
    - time: 2.125
      value: {fileID: 21300014, guid: b15e622da7a1a214398ab63bb2091374, type: 3}
    - time: 2.25
      value: {fileID: 21300016, guid: b15e622da7a1a214398ab63bb2091374, type: 3}
    - time: 2.375
      value: {fileID: 21300000, guid: b15e622da7a1a214398ab63bb2091374, type: 3}
    - time: 3.375
      value: {fileID: 21300000, guid: b15e622da7a1a214398ab63bb2091374, type: 3}
    attribute: m_Sprite
    path: 
    classID: 212
    script: {fileID: 0}
  m_SampleRate: 8
  m_WrapMode: 0
  m_Bounds:
    m_Center: {x: 0, y: 0, z: 0}
    m_Extent: {x: 0, y: 0, z: 0}
  m_ClipBindingConstant:
    genericBindings:
    - serializedVersion: 2
      path: 0
      attribute: 1
      script: {fileID: 0}
      typeID: 4
      customType: 0
      isPPtrCurve: 0
    - serializedVersion: 2
      path: 0
      attribute: 304273561
      script: {fileID: 0}
      typeID: 212
      customType: 0
      isPPtrCurve: 0
    - serializedVersion: 2
      path: 0
      attribute: 0
      script: {fileID: 0}
      typeID: 212
      customType: 23
      isPPtrCurve: 1
    pptrCurveMapping:
    - {fileID: 21300002, guid: b15e622da7a1a214398ab63bb2091374, type: 3}
    - {fileID: 21300004, guid: b15e622da7a1a214398ab63bb2091374, type: 3}
    - {fileID: 21300006, guid: b15e622da7a1a214398ab63bb2091374, type: 3}
    - {fileID: 21300008, guid: b15e622da7a1a214398ab63bb2091374, type: 3}
    - {fileID: 21300018, guid: b15e622da7a1a214398ab63bb2091374, type: 3}
    - {fileID: 21300010, guid: b15e622da7a1a214398ab63bb2091374, type: 3}
    - {fileID: 21300012, guid: b15e622da7a1a214398ab63bb2091374, type: 3}
    - {fileID: 21300014, guid: b15e622da7a1a214398ab63bb2091374, type: 3}
    - {fileID: 21300016, guid: b15e622da7a1a214398ab63bb2091374, type: 3}
    - {fileID: 21300000, guid: b15e622da7a1a214398ab63bb2091374, type: 3}
    - {fileID: 21300000, guid: b15e622da7a1a214398ab63bb2091374, type: 3}
  m_AnimationClipSettings:
    serializedVersion: 2
    m_AdditiveReferencePoseClip: {fileID: 0}
    m_AdditiveReferencePoseTime: 0
    m_StartTime: 0
    m_StopTime: 3.75
    m_OrientationOffsetY: 0
    m_Level: 0
    m_CycleOffset: 0
    m_HasAdditiveReferencePose: 0
    m_LoopTime: 1
    m_LoopBlend: 0
    m_LoopBlendOrientation: 0
    m_LoopBlendPositionY: 0
    m_LoopBlendPositionXZ: 0
    m_KeepOriginalOrientation: 0
    m_KeepOriginalPositionY: 1
    m_KeepOriginalPositionXZ: 0
    m_HeightFromFeet: 0
    m_Mirror: 0
  m_EditorCurves:
  - curve:
      serializedVersion: 2
      m_Curve:
      - serializedVersion: 2
        time: 0
        value: -0.416
        inSlope: -0.09121789
        outSlope: -0.09121789
        tangentMode: 0
      - serializedVersion: 2
        time: 0.75
        value: -0.34768835
        inSlope: 0.18265231
        outSlope: 0.18265231
        tangentMode: 136
      - serializedVersion: 2
        time: 1.25
        value: -0.18768463
        inSlope: 1.4998426
        outSlope: 1.4998426
        tangentMode: 0
      - serializedVersion: 2
        time: 1.625
        value: 0.097102106
        inSlope: 0.3233139
        outSlope: 0.3233139
        tangentMode: 0
      - serializedVersion: 2
        time: 2.375
        value: -0.35741127
        inSlope: -0.47142854
        outSlope: -0.47142854
        tangentMode: 0
      - serializedVersion: 2
        time: 2.75
        value: -0.5756566
        inSlope: -0.13891888
        outSlope: -0.13891888
        tangentMode: 136
      - serializedVersion: 2
        time: 3.375
        value: -0.6103863
        inSlope: -0.05193016
        outSlope: -0.05193016
        tangentMode: 0
      - serializedVersion: 2
        time: 3.75
        value: -0.46573597
        inSlope: 0
        outSlope: 0
        tangentMode: 0
      m_PreInfinity: 2
      m_PostInfinity: 2
      m_RotationOrder: 4
    attribute: m_LocalPosition.x
    path: 
    classID: 4
    script: {fileID: 0}
  - curve:
      serializedVersion: 2
      m_Curve:
      - serializedVersion: 2
        time: 0
        value: -1.3375609
        inSlope: 0
        outSlope: 0
        tangentMode: 136
      - serializedVersion: 2
        time: 0.25
        value: -1.2752389
        inSlope: 0.22152251
        outSlope: 0.22152251
        tangentMode: 0
      - serializedVersion: 2
        time: 0.75
        value: -1.393
        inSlope: 0.10122143
        outSlope: 0.10122143
        tangentMode: 0
      - serializedVersion: 2
        time: 1.25
        value: -1.5320342
        inSlope: 0
        outSlope: 0
        tangentMode: 136
      - serializedVersion: 2
        time: 1.625
        value: -1.3958437
        inSlope: 0
        outSlope: 0
        tangentMode: 136
      - serializedVersion: 2
        time: 2.25
        value: -1.7987214
        inSlope: 0
        outSlope: 0
        tangentMode: 136
      - serializedVersion: 2
        time: 2.875
        value: -1.5169255
        inSlope: -0.009531154
        outSlope: -0.009531154
        tangentMode: 0
      - serializedVersion: 2
        time: 3.375
        value: -1.4545878
        inSlope: 0.23678796
        outSlope: 0.23678796
        tangentMode: 136
      - serializedVersion: 2
        time: 3.625
        value: -1.3393345
        inSlope: 0
        outSlope: 0
        tangentMode: 136
      m_PreInfinity: 2
      m_PostInfinity: 2
      m_RotationOrder: 4
    attribute: m_LocalPosition.y
    path: 
    classID: 4
    script: {fileID: 0}
  - curve:
      serializedVersion: 2
      m_Curve:
      - serializedVersion: 2
        time: 0
        value: 0
        inSlope: 0
        outSlope: 0
        tangentMode: 136
      - serializedVersion: 2
        time: 0.25
        value: 0
        inSlope: 0
        outSlope: 0
        tangentMode: 136
      - serializedVersion: 2
        time: 0.75
        value: 0
        inSlope: 0
        outSlope: 0
        tangentMode: 136
      - serializedVersion: 2
        time: 1.25
        value: 0
        inSlope: 0
        outSlope: 0
        tangentMode: 136
      - serializedVersion: 2
        time: 1.375
        value: 0
        inSlope: 0
        outSlope: 0
        tangentMode: 136
      - serializedVersion: 2
        time: 2.25
        value: 0
        inSlope: 0
        outSlope: 0
        tangentMode: 136
      - serializedVersion: 2
        time: 2.875
        value: 0
        inSlope: 0
        outSlope: 0
        tangentMode: 136
      - serializedVersion: 2
        time: 3.5
        value: 0
        inSlope: 0
        outSlope: 0
        tangentMode: 136
      - serializedVersion: 2
        time: 3.625
        value: 0
        inSlope: 0
        outSlope: 0
        tangentMode: 136
      m_PreInfinity: 2
      m_PostInfinity: 2
      m_RotationOrder: 4
    attribute: m_LocalPosition.z
    path: 
    classID: 4
    script: {fileID: 0}
  - curve:
      serializedVersion: 2
      m_Curve:
      - serializedVersion: 2
        time: 0
        value: 0.5882353
        inSlope: 0
        outSlope: 0
        tangentMode: 136
      - serializedVersion: 2
        time: 1.125
        value: 0.3612371
        inSlope: 0
        outSlope: 0
        tangentMode: 136
      - serializedVersion: 2
        time: 2.125
        value: 0.6711581
        inSlope: 0
        outSlope: 0
        tangentMode: 136
      - serializedVersion: 2
        time: 3.125
        value: 0.19463128
        inSlope: 0
        outSlope: 0
        tangentMode: 136
      - serializedVersion: 2
        time: 3.625
        value: 0.566
        inSlope: 0
        outSlope: 0
        tangentMode: 136
      m_PreInfinity: 2
      m_PostInfinity: 2
      m_RotationOrder: 4
    attribute: m_Color.a
    path: 
    classID: 212
    script: {fileID: 0}
  m_EulerEditorCurves: []
  m_HasGenericRootTransform: 1
  m_HasMotionFloatCurves: 0
  m_GenerateMotionCurves: 0
  m_Events: []
