%YAML 1.1
%TAG !u! tag:unity3d.com,2011:
--- !u!221 &22100000
AnimatorOverrideController:
  m_ObjectHideFlags: 0
  m_PrefabParentObject: {fileID: 0}
  m_PrefabInternal: {fileID: 0}
  m_Name: WomanGuest
  m_Controller: {fileID: 9100000, guid: 9af9e914c90acf449b12f8ec0f13c152, type: 2}
  m_Clips:
  - m_OriginalClip: {fileID: 7400000, guid: 0d5bcda3fc14ec8489986842991e2bae, type: 2}
    m_OverrideClip: {fileID: 7400000, guid: e04eb5555a7cd974c863945defe5cc78, type: 2}
  - m_OriginalClip: {fileID: 7400000, guid: 204c2236951514143aa51bb202005151, type: 2}
    m_OverrideClip: {fileID: 7400000, guid: 1f36dd77368f33341804a261ccff8f75, type: 2}
  - m_OriginalClip: {fileID: 7400000, guid: 5be23903c444ea949a187e3dec858304, type: 2}
    m_OverrideClip: {fileID: 7400000, guid: 5666fe883538c7342bd08c813214cf3a, type: 2}
  - m_OriginalClip: {fileID: 7400000, guid: cd94404b8298f824f874eb1f4fc0ad1a, type: 2}
    m_OverrideClip: {fileID: 7400000, guid: 44f3219b55f0dcb44a23231f9eab23d2, type: 2}
  - m_OriginalClip: {fileID: 7400000, guid: 03432b0449a358f41ba74cd7f8edaab4, type: 2}
    m_OverrideClip: {fileID: 7400000, guid: 244b996a690011a49acc3e0d8443daef, type: 2}
  - m_OriginalClip: {fileID: 7400000, guid: 6ffa29480ee469447b6be89d53148e3c, type: 2}
    m_OverrideClip: {fileID: 7400000, guid: a71be9633063c6443be161d026c02f37, type: 2}
